EESchema Schematic File Version 2
LIBS:function-generator-rescue
LIBS:power
LIBS:device
LIBS:transistors
LIBS:conn
LIBS:linear
LIBS:regul
LIBS:74xx
LIBS:cmos4000
LIBS:adc-dac
LIBS:memory
LIBS:xilinx
LIBS:microcontrollers
LIBS:dsp
LIBS:microchip
LIBS:analog_switches
LIBS:motorola
LIBS:texas
LIBS:intel
LIBS:audio
LIBS:interface
LIBS:digital-audio
LIBS:philips
LIBS:display
LIBS:cypress
LIBS:siliconi
LIBS:opto
LIBS:atmel
LIBS:contrib
LIBS:valves
LIBS:my-switches
LIBS:my-ICs
LIBS:function-generator-cache
EELAYER 25 0
EELAYER END
$Descr A4 11693 8268
encoding utf-8
Sheet 1 1
Title ""
Date ""
Rev ""
Comp ""
Comment1 ""
Comment2 ""
Comment3 ""
Comment4 ""
$EndDescr
$Comp
L XR2206-RESCUE-function-generator U1
U 1 1 58B32EF3
P 4300 4100
F 0 "U1" H 4450 4700 50  0000 C CNN
F 1 "XR2206" H 4100 4700 50  0000 C CNN
F 2 "Housings_DIP:DIP-16_W7.62mm_LongPads" H 4300 4100 60  0001 C CNN
F 3 "" H 4300 4100 60  0000 C CNN
	1    4300 4100
	1    0    0    -1  
$EndComp
$Comp
L C C6
U 1 1 58B32F46
P 3050 4250
F 0 "C6" H 3075 4350 50  0000 L CNN
F 1 "100pF" H 2950 4150 50  0000 L CNN
F 2 "Capacitors_ThroughHole:C_Rect_L7_W2_P5" H 3088 4100 50  0001 C CNN
F 3 "" H 3050 4250 50  0000 C CNN
	1    3050 4250
	0    1    1    0   
$EndComp
$Comp
L C C5
U 1 1 58B32FBD
P 3050 3950
F 0 "C5" H 3075 4050 50  0000 L CNN
F 1 "1nF" H 3000 3850 50  0000 L CNN
F 2 "Capacitors_ThroughHole:C_Rect_L7_W2_P5" H 3088 3800 50  0001 C CNN
F 3 "" H 3050 3950 50  0000 C CNN
	1    3050 3950
	0    1    1    0   
$EndComp
$Comp
L C C4
U 1 1 58B32FDE
P 3050 3650
F 0 "C4" H 3075 3750 50  0000 L CNN
F 1 "10nF" H 2950 3550 50  0000 L CNN
F 2 "Capacitors_ThroughHole:C_Rect_L7_W2_P5" H 3088 3500 50  0001 C CNN
F 3 "" H 3050 3650 50  0000 C CNN
	1    3050 3650
	0    1    1    0   
$EndComp
$Comp
L C C3
U 1 1 58B33002
P 3050 3350
F 0 "C3" H 3075 3450 50  0000 L CNN
F 1 "100nF" H 2950 3250 50  0000 L CNN
F 2 "Capacitors_ThroughHole:C_Rect_L7_W2.5_P5" H 3088 3200 50  0001 C CNN
F 3 "" H 3050 3350 50  0000 C CNN
	1    3050 3350
	0    1    1    0   
$EndComp
$Comp
L C C2
U 1 1 58B33029
P 3050 3050
F 0 "C2" H 3075 3150 50  0000 L CNN
F 1 "1µF" H 3000 2950 50  0000 L CNN
F 2 "Capacitors_ThroughHole:C_Rect_L7_W4.5_P5" H 3088 2900 50  0001 C CNN
F 3 "" H 3050 3050 50  0000 C CNN
	1    3050 3050
	0    1    1    0   
$EndComp
$Comp
L C C1
U 1 1 58B33140
P 3050 2750
F 0 "C1" H 3075 2850 50  0000 L CNN
F 1 "10µF" H 2950 2650 50  0000 L CNN
F 2 "Capacitors_ThroughHole:C_Rect_L27_W9_H17_P23" H 3088 2600 50  0001 C CNN
F 3 "" H 3050 2750 50  0000 C CNN
	1    3050 2750
	0    1    1    0   
$EndComp
$Comp
L Rotary-switch-6 SW1
U 1 1 58B33336
P 2650 3800
F 0 "SW1" V 2500 4200 60  0000 C CNN
F 1 "RANGE" H 2950 4300 60  0000 C CNN
F 2 "Pin_Headers:Pin_Header_Straight_1x07" H 2650 3800 60  0001 C CNN
F 3 "" H 2650 3800 60  0000 C CNN
	1    2650 3800
	0    -1   -1   0   
$EndComp
$Comp
L R R1
U 1 1 58B33616
P 3400 1800
F 0 "R1" V 3480 1800 50  0000 C CNN
F 1 "100K" V 3400 1800 50  0000 C CNN
F 2 "Resistors_ThroughHole:Resistor_Horizontal_RM10mm" V 3330 1800 50  0001 C CNN
F 3 "" H 3400 1800 50  0000 C CNN
	1    3400 1800
	-1   0    0    1   
$EndComp
$Comp
L POT RV2
U 1 1 58B337A9
P 3150 2100
F 0 "RV2" H 3150 2020 50  0000 C CNN
F 1 "SINE AMPLITUDE 47K" H 2800 2350 50  0000 C CNN
F 2 "library:Potentiometer_5.08x10.16" H 3150 2100 50  0001 C CNN
F 3 "" H 3150 2100 50  0000 C CNN
	1    3150 2100
	1    0    0    -1  
$EndComp
$Comp
L POT RV1
U 1 1 58B338C6
P 4000 1550
F 0 "RV1" H 4000 1470 50  0000 C CNN
F 1 "OFFSET 10K" H 4000 1400 50  0000 C CNN
F 2 "library:Potentiometer_5.08x10.16" H 4000 1550 50  0001 C CNN
F 3 "" H 4000 1550 50  0000 C CNN
	1    4000 1550
	0    -1   1    0   
$EndComp
$Comp
L GND #PWR01
U 1 1 58B33A4B
P 1350 2300
F 0 "#PWR01" H 1350 2050 50  0001 C CNN
F 1 "GND" H 1350 2150 50  0000 C CNN
F 2 "" H 1350 2300 50  0000 C CNN
F 3 "" H 1350 2300 50  0000 C CNN
	1    1350 2300
	1    0    0    -1  
$EndComp
$Comp
L POT RV3
U 1 1 58B33698
P 3150 2300
F 0 "RV3" H 3050 2400 50  0000 C CNN
F 1 "TRIANGLE AMPLITUDE 47K" H 3450 2500 50  0000 C CNN
F 2 "library:Potentiometer_5.08x10.16" H 3150 2300 50  0001 C CNN
F 3 "" H 3150 2300 50  0000 C CNN
	1    3150 2300
	-1   0    0    1   
$EndComp
$Comp
L +12V #PWR02
U 1 1 58B33BE6
P 4000 1100
F 0 "#PWR02" H 4000 950 50  0001 C CNN
F 1 "+12V" H 4000 1240 50  0000 C CNN
F 2 "" H 4000 1100 50  0000 C CNN
F 3 "" H 4000 1100 50  0000 C CNN
	1    4000 1100
	-1   0    0    -1  
$EndComp
$Comp
L -12VA #PWR03
U 1 1 58B33C4E
P 4000 2150
F 0 "#PWR03" H 4000 2000 50  0001 C CNN
F 1 "-12VA" H 4000 2290 50  0000 C CNN
F 2 "" H 4000 2150 50  0000 C CNN
F 3 "" H 4000 2150 50  0000 C CNN
	1    4000 2150
	1    0    0    1   
$EndComp
$Comp
L R R3
U 1 1 58B34031
P 3500 5100
F 0 "R3" V 3580 5100 50  0000 C CNN
F 1 "33K" V 3500 5100 50  0000 C CNN
F 2 "Resistors_ThroughHole:Resistor_Horizontal_RM10mm" V 3430 5100 50  0001 C CNN
F 3 "" H 3500 5100 50  0000 C CNN
	1    3500 5100
	-1   0    0    1   
$EndComp
$Comp
L -12VA #PWR04
U 1 1 58B3413F
P 4100 5550
F 0 "#PWR04" H 4100 5400 50  0001 C CNN
F 1 "-12VA" H 4100 5690 50  0000 C CNN
F 2 "" H 4100 5550 50  0000 C CNN
F 3 "" H 4100 5550 50  0000 C CNN
	1    4100 5550
	-1   0    0    1   
$EndComp
$Comp
L CP C7
U 1 1 58B34226
P 5200 5200
F 0 "C7" H 5225 5300 50  0000 L CNN
F 1 "10µF 10V" H 5050 5100 50  0000 L CNN
F 2 "Capacitors_ThroughHole:C_Radial_D5_L11_P2" H 5238 5050 50  0001 C CNN
F 3 "" H 5200 5200 50  0000 C CNN
	1    5200 5200
	1    0    0    -1  
$EndComp
$Comp
L C C9
U 1 1 58B343DC
P 5000 5700
F 0 "C9" H 4900 5800 50  0000 L CNN
F 1 "100nF" H 4900 5600 50  0000 L CNN
F 2 "Capacitors_ThroughHole:C_Rect_L7_W2.5_P5" H 5038 5550 50  0001 C CNN
F 3 "" H 5000 5700 50  0000 C CNN
	1    5000 5700
	-1   0    0    1   
$EndComp
$Comp
L R R6
U 1 1 58B34EB3
P 5450 4400
F 0 "R6" V 5530 4400 50  0000 C CNN
F 1 "1K" V 5450 4400 50  0000 C CNN
F 2 "Resistors_ThroughHole:Resistor_Horizontal_RM10mm" V 5380 4400 50  0001 C CNN
F 3 "" H 5450 4400 50  0000 C CNN
	1    5450 4400
	-1   0    0    1   
$EndComp
$Comp
L R R8
U 1 1 58B35280
P 6050 3850
F 0 "R8" V 6130 3850 50  0000 C CNN
F 1 "300" V 6050 3850 50  0000 C CNN
F 2 "Resistors_ThroughHole:Resistor_Horizontal_RM10mm" V 5980 3850 50  0001 C CNN
F 3 "" H 6050 3850 50  0000 C CNN
	1    6050 3850
	0    1    1    0   
$EndComp
$Comp
L POT RV7
U 1 1 58B35392
P 6050 3650
F 0 "RV7" H 6050 3570 50  0000 C CNN
F 1 "DISTORSION 1K" H 6050 3800 50  0000 C CNN
F 2 "Potentiometers:Potentiometer_Bourns_3296W_3-8Zoll_Inline_ScrewUp" H 6050 3650 50  0001 C CNN
F 3 "" H 6050 3650 50  0000 C CNN
	1    6050 3650
	1    0    0    -1  
$EndComp
$Comp
L POT RV4
U 1 1 58B358A4
P 2850 4550
F 0 "RV4" H 2850 4470 50  0000 C CNN
F 1 "FINE 10K" H 2850 4800 50  0000 C CNN
F 2 "Potentiometers:Potentiometer_Alps-RK16-single_largePads" H 2850 4550 50  0001 C CNN
F 3 "" H 2850 4550 50  0000 C CNN
	1    2850 4550
	-1   0    0    1   
$EndComp
$Comp
L R R2
U 1 1 58B35978
P 3250 4550
F 0 "R2" V 3330 4550 50  0000 C CNN
F 1 "4.7K" V 3250 4550 50  0000 C CNN
F 2 "Resistors_ThroughHole:Resistor_Horizontal_RM10mm" V 3180 4550 50  0001 C CNN
F 3 "" H 3250 4550 50  0000 C CNN
	1    3250 4550
	0    -1   -1   0   
$EndComp
$Comp
L POT RV5
U 1 1 58B35A2C
P 2350 4550
F 0 "RV5" H 2350 4470 50  0000 C CNN
F 1 "FREQ 470K" H 2400 4800 50  0000 C CNN
F 2 "Potentiometers:Potentiometer_Alps-RK16-single_largePads" H 2350 4550 50  0001 C CNN
F 3 "" H 2350 4550 50  0000 C CNN
	1    2350 4550
	-1   0    0    1   
$EndComp
$Comp
L C C8
U 1 1 58B35E3E
P 4450 1500
F 0 "C8" H 4350 1600 50  0000 L CNN
F 1 "100nF" H 4200 1400 50  0000 L CNN
F 2 "Capacitors_ThroughHole:C_Rect_L7_W2.5_P5" H 4488 1350 50  0001 C CNN
F 3 "" H 4450 1500 50  0000 C CNN
	1    4450 1500
	-1   0    0    1   
$EndComp
$Comp
L GND #PWR05
U 1 1 58B35FAC
P 4650 1850
F 0 "#PWR05" H 4650 1600 50  0001 C CNN
F 1 "GND" H 4650 1700 50  0000 C CNN
F 2 "" H 4650 1850 50  0000 C CNN
F 3 "" H 4650 1850 50  0000 C CNN
	1    4650 1850
	1    0    0    -1  
$EndComp
$Comp
L TL082 U2
U 1 1 58B362AF
P 7100 3850
F 0 "U2" H 7050 4050 50  0000 L CNN
F 1 "TL082" H 7050 3600 50  0000 L CNN
F 2 "Housings_DIP:DIP-8_W7.62mm_LongPads" H 7100 3850 50  0001 C CNN
F 3 "" H 7100 3850 50  0000 C CNN
	1    7100 3850
	1    0    0    -1  
$EndComp
$Comp
L CP C11
U 1 1 58B3653F
P 7200 4600
F 0 "C11" H 7150 4750 50  0000 L CNN
F 1 "2.2µF 16V" H 6950 4500 50  0000 L CNN
F 2 "Capacitors_ThroughHole:C_Radial_D5_L11_P2" H 7238 4450 50  0001 C CNN
F 3 "" H 7200 4600 50  0000 C CNN
	1    7200 4600
	1    0    0    1   
$EndComp
$Comp
L C C13
U 1 1 58B3683A
P 7500 4600
F 0 "C13" H 7400 4700 50  0000 L CNN
F 1 "10nF" H 7400 4500 50  0000 L CNN
F 2 "Capacitors_ThroughHole:C_Rect_L7_W2_P5" H 7538 4450 50  0001 C CNN
F 3 "" H 7500 4600 50  0000 C CNN
	1    7500 4600
	-1   0    0    1   
$EndComp
$Comp
L CP C10
U 1 1 58B36DC2
P 7200 2900
F 0 "C10" H 7100 3050 50  0000 L CNN
F 1 "2.2µF 16V" H 6950 2800 50  0000 L CNN
F 2 "Capacitors_ThroughHole:C_Radial_D5_L11_P2" H 7238 2750 50  0001 C CNN
F 3 "" H 7200 2900 50  0000 C CNN
	1    7200 2900
	1    0    0    -1  
$EndComp
$Comp
L C C12
U 1 1 58B36E65
P 7450 2900
F 0 "C12" H 7350 3000 50  0000 L CNN
F 1 "10nF" H 7350 2800 50  0000 L CNN
F 2 "Capacitors_ThroughHole:C_Rect_L7_W2_P5" H 7488 2750 50  0001 C CNN
F 3 "" H 7450 2900 50  0000 C CNN
	1    7450 2900
	-1   0    0    1   
$EndComp
$Comp
L GND #PWR06
U 1 1 58B36FCD
P 7200 3350
F 0 "#PWR06" H 7200 3100 50  0001 C CNN
F 1 "GND" H 7200 3200 50  0000 C CNN
F 2 "" H 7200 3350 50  0000 C CNN
F 3 "" H 7200 3350 50  0000 C CNN
	1    7200 3350
	1    0    0    -1  
$EndComp
$Comp
L TL082 U2
U 2 1 58B37588
P 8900 3950
F 0 "U2" H 8850 4150 50  0000 L CNN
F 1 "TL082" H 8850 3700 50  0000 L CNN
F 2 "Housings_DIP:DIP-8_W7.62mm_LongPads" H 8900 3950 50  0001 C CNN
F 3 "" H 8900 3950 50  0000 C CNN
	2    8900 3950
	1    0    0    -1  
$EndComp
$Comp
L POT RV8
U 1 1 58B3762A
P 7900 4200
F 0 "RV8" H 7900 4120 50  0000 C CNN
F 1 "AMPLITUDE 10K" H 7900 4350 50  0000 C CNN
F 2 "Potentiometers:Potentiometer_Alps-RK16-single_largePads" H 7900 4200 50  0001 C CNN
F 3 "" H 7900 4200 50  0000 C CNN
	1    7900 4200
	0    1    1    0   
$EndComp
$Comp
L R R10
U 1 1 58B379CF
P 8950 4400
F 0 "R10" V 9030 4400 50  0000 C CNN
F 1 "10K" V 8950 4400 50  0000 C CNN
F 2 "Resistors_ThroughHole:Resistor_Horizontal_RM10mm" V 8880 4400 50  0001 C CNN
F 3 "" H 8950 4400 50  0000 C CNN
	1    8950 4400
	0    1    1    0   
$EndComp
$Comp
L R R9
U 1 1 58B37B2F
P 8500 4700
F 0 "R9" V 8580 4700 50  0000 C CNN
F 1 "1K" V 8500 4700 50  0000 C CNN
F 2 "Resistors_ThroughHole:Resistor_Horizontal_RM10mm" V 8430 4700 50  0001 C CNN
F 3 "" H 8500 4700 50  0000 C CNN
	1    8500 4700
	-1   0    0    1   
$EndComp
$Comp
L GND #PWR07
U 1 1 58B3852D
P 7900 4450
F 0 "#PWR07" H 7900 4200 50  0001 C CNN
F 1 "GND" H 7900 4300 50  0000 C CNN
F 2 "" H 7900 4450 50  0000 C CNN
F 3 "" H 7900 4450 50  0000 C CNN
	1    7900 4450
	1    0    0    -1  
$EndComp
$Comp
L POT RV9
U 1 1 58B38EBE
P 8850 4950
F 0 "RV9" H 8850 4870 50  0000 C CNN
F 1 "OFFSET 10K" H 8850 4800 50  0000 C CNN
F 2 "Potentiometers:Potentiometer_Alps-RK16-single_largePads" H 8850 4950 50  0001 C CNN
F 3 "" H 8850 4950 50  0000 C CNN
	1    8850 4950
	0    -1   -1   0   
$EndComp
$Comp
L +12V #PWR08
U 1 1 58B39375
P 8850 4700
F 0 "#PWR08" H 8850 4550 50  0001 C CNN
F 1 "+12V" H 8850 4840 50  0000 C CNN
F 2 "" H 8850 4700 50  0000 C CNN
F 3 "" H 8850 4700 50  0000 C CNN
	1    8850 4700
	1    0    0    -1  
$EndComp
$Comp
L BNC P3
U 1 1 58B394AD
P 10400 3950
F 0 "P3" H 10410 4070 50  0000 C CNN
F 1 "ANALOG-OUT" V 10550 3950 50  0000 C CNN
F 2 "Pin_Headers:Pin_Header_Straight_1x02" H 10400 3950 50  0001 C CNN
F 3 "" H 10400 3950 50  0000 C CNN
	1    10400 3950
	1    0    0    -1  
$EndComp
$Comp
L GND #PWR09
U 1 1 58B395C9
P 10400 4250
F 0 "#PWR09" H 10400 4000 50  0001 C CNN
F 1 "GND" H 10400 4100 50  0000 C CNN
F 2 "" H 10400 4250 50  0000 C CNN
F 3 "" H 10400 4250 50  0000 C CNN
	1    10400 4250
	1    0    0    -1  
$EndComp
$Comp
L R R4
U 1 1 58B3A1E9
P 5050 2100
F 0 "R4" V 5130 2100 50  0000 C CNN
F 1 "8.2K" V 5050 2100 50  0000 C CNN
F 2 "Resistors_ThroughHole:Resistor_Horizontal_RM10mm" V 4980 2100 50  0001 C CNN
F 3 "" H 5050 2100 50  0000 C CNN
	1    5050 2100
	-1   0    0    1   
$EndComp
$Comp
L R R5
U 1 1 58B3A2C9
P 5050 2600
F 0 "R5" V 5130 2600 50  0000 C CNN
F 1 "1.5K" V 5050 2600 50  0000 C CNN
F 2 "Resistors_ThroughHole:Resistor_Horizontal_RM10mm" V 4980 2600 50  0001 C CNN
F 3 "" H 5050 2600 50  0000 C CNN
	1    5050 2600
	-1   0    0    1   
$EndComp
$Comp
L R R7
U 1 1 58B3A7C1
P 5300 2350
F 0 "R7" V 5380 2350 50  0000 C CNN
F 1 "4.7K" V 5300 2350 50  0000 C CNN
F 2 "Resistors_ThroughHole:Resistor_Horizontal_RM10mm" V 5230 2350 50  0001 C CNN
F 3 "" H 5300 2350 50  0000 C CNN
	1    5300 2350
	0    1    1    0   
$EndComp
$Comp
L GND #PWR010
U 1 1 58B3AC4C
P 8500 3150
F 0 "#PWR010" H 8500 2900 50  0001 C CNN
F 1 "GND" H 8500 3000 50  0000 C CNN
F 2 "" H 8500 3150 50  0000 C CNN
F 3 "" H 8500 3150 50  0000 C CNN
	1    8500 3150
	1    0    0    -1  
$EndComp
$Comp
L R R12
U 1 1 58B3B376
P 9300 2550
F 0 "R12" V 9380 2550 50  0000 C CNN
F 1 "2.2K" V 9300 2550 50  0000 C CNN
F 2 "Resistors_ThroughHole:Resistor_Horizontal_RM10mm" V 9230 2550 50  0001 C CNN
F 3 "" H 9300 2550 50  0000 C CNN
	1    9300 2550
	-1   0    0    1   
$EndComp
$Comp
L BNC P2
U 1 1 58B3B57C
P 10400 2850
F 0 "P2" H 10410 2970 50  0000 C CNN
F 1 "SQUARE-OUT" V 10550 2850 50  0000 C CNN
F 2 "Pin_Headers:Pin_Header_Straight_1x02" H 10400 2850 50  0001 C CNN
F 3 "" H 10400 2850 50  0000 C CNN
	1    10400 2850
	1    0    0    -1  
$EndComp
$Comp
L +5V #PWR011
U 1 1 58B3B6DF
P 9300 2300
F 0 "#PWR011" H 9300 2150 50  0001 C CNN
F 1 "+5V" H 9300 2440 50  0000 C CNN
F 2 "" H 9300 2300 50  0000 C CNN
F 3 "" H 9300 2300 50  0000 C CNN
	1    9300 2300
	1    0    0    -1  
$EndComp
$Comp
L GND #PWR012
U 1 1 58B3CAAF
P 10400 3350
F 0 "#PWR012" H 10400 3100 50  0001 C CNN
F 1 "GND" H 10400 3200 50  0000 C CNN
F 2 "" H 10400 3350 50  0000 C CNN
F 3 "" H 10400 3350 50  0000 C CNN
	1    10400 3350
	1    0    0    -1  
$EndComp
$Comp
L GND #PWR013
U 1 1 58B3CE35
P 8800 3350
F 0 "#PWR013" H 8800 3100 50  0001 C CNN
F 1 "GND" H 8800 3200 50  0000 C CNN
F 2 "" H 8800 3350 50  0000 C CNN
F 3 "" H 8800 3350 50  0000 C CNN
	1    8800 3350
	1    0    0    -1  
$EndComp
$Comp
L GND #PWR014
U 1 1 58B3CEC4
P 8800 2250
F 0 "#PWR014" H 8800 2000 50  0001 C CNN
F 1 "GND" H 8800 2100 50  0000 C CNN
F 2 "" H 8800 2250 50  0000 C CNN
F 3 "" H 8800 2250 50  0000 C CNN
	1    8800 2250
	1    0    0    -1  
$EndComp
$Comp
L +5V #PWR015
U 1 1 58B3D16E
P 8800 1050
F 0 "#PWR015" H 8800 900 50  0001 C CNN
F 1 "+5V" H 8800 1190 50  0000 C CNN
F 2 "" H 8800 1050 50  0000 C CNN
F 3 "" H 8800 1050 50  0000 C CNN
	1    8800 1050
	1    0    0    -1  
$EndComp
$Comp
L C C15
U 1 1 58B3D30C
P 8100 1450
F 0 "C15" H 8000 1550 50  0000 L CNN
F 1 "100nF" H 7850 1350 50  0000 L CNN
F 2 "Capacitors_ThroughHole:C_Rect_L7_W2.5_P5" H 8138 1300 50  0001 C CNN
F 3 "" H 8100 1450 50  0000 C CNN
	1    8100 1450
	-1   0    0    1   
$EndComp
$Comp
L GND #PWR016
U 1 1 58B3D44F
P 8100 1650
F 0 "#PWR016" H 8100 1400 50  0001 C CNN
F 1 "GND" H 8100 1500 50  0000 C CNN
F 2 "" H 8100 1650 50  0000 C CNN
F 3 "" H 8100 1650 50  0000 C CNN
	1    8100 1650
	1    0    0    -1  
$EndComp
$Comp
L R R11
U 1 1 58B3DD91
P 9300 1500
F 0 "R11" V 9380 1500 50  0000 C CNN
F 1 "2.2K" V 9300 1500 50  0000 C CNN
F 2 "Resistors_ThroughHole:Resistor_Horizontal_RM10mm" V 9230 1500 50  0001 C CNN
F 3 "" H 9300 1500 50  0000 C CNN
	1    9300 1500
	-1   0    0    1   
$EndComp
$Comp
L R R13
U 1 1 58B3E2AE
P 9550 1850
F 0 "R13" V 9630 1850 50  0000 C CNN
F 1 "1K" V 9550 1850 50  0000 C CNN
F 2 "Resistors_ThroughHole:Resistor_Horizontal_RM10mm" V 9480 1850 50  0001 C CNN
F 3 "" H 9550 1850 50  0000 C CNN
	1    9550 1850
	0    -1   -1   0   
$EndComp
$Comp
L CONN_01X03 P1
U 1 1 58B3E555
P 10400 1850
F 0 "P1" H 10400 2050 50  0000 C CNN
F 1 "COUNTER" V 10500 1850 50  0000 C CNN
F 2 "Pin_Headers:Pin_Header_Straight_1x03" H 10400 1850 50  0001 C CNN
F 3 "" H 10400 1850 50  0000 C CNN
	1    10400 1850
	1    0    0    -1  
$EndComp
$Comp
L GND #PWR017
U 1 1 58B3EB97
P 10100 2450
F 0 "#PWR017" H 10100 2200 50  0001 C CNN
F 1 "GND" H 10100 2300 50  0000 C CNN
F 2 "" H 10100 2450 50  0000 C CNN
F 3 "" H 10100 2450 50  0000 C CNN
	1    10100 2450
	1    0    0    -1  
$EndComp
$Comp
L D D1
U 1 1 58B3EC04
P 9850 2100
F 0 "D1" H 9850 2200 50  0000 C CNN
F 1 "1N4148" H 9850 2000 50  0000 C CNN
F 2 "Diodes_ThroughHole:Diode_DO-35_SOD27_Horizontal_RM10" H 9850 2100 50  0001 C CNN
F 3 "" H 9850 2100 50  0000 C CNN
	1    9850 2100
	0    1    1    0   
$EndComp
$Comp
L LM7805CT U4
U 1 1 58B49C53
P 2700 6750
F 0 "U4" H 2500 6950 50  0000 C CNN
F 1 "LM7805CT" H 2700 6950 50  0000 L CNN
F 2 "Power_Integrations:TO-220" H 2700 6850 50  0001 C CIN
F 3 "" H 2700 6750 50  0000 C CNN
	1    2700 6750
	1    0    0    -1  
$EndComp
$Comp
L +12V #PWR018
U 1 1 58B49D18
P 2100 6500
F 0 "#PWR018" H 2100 6350 50  0001 C CNN
F 1 "+12V" H 2100 6640 50  0000 C CNN
F 2 "" H 2100 6500 50  0000 C CNN
F 3 "" H 2100 6500 50  0000 C CNN
	1    2100 6500
	1    0    0    -1  
$EndComp
$Comp
L GND #PWR019
U 1 1 58B49F5C
P 2700 7300
F 0 "#PWR019" H 2700 7050 50  0001 C CNN
F 1 "GND" H 2700 7150 50  0000 C CNN
F 2 "" H 2700 7300 50  0000 C CNN
F 3 "" H 2700 7300 50  0000 C CNN
	1    2700 7300
	1    0    0    -1  
$EndComp
$Comp
L CP C16
U 1 1 58B4A0FC
P 3200 6950
F 0 "C16" H 3225 7050 50  0000 L CNN
F 1 "470µF 10V" H 2950 6850 50  0000 L CNN
F 2 "Capacitors_ThroughHole:C_Radial_D8_L11.5_P3.5" H 3238 6800 50  0001 C CNN
F 3 "" H 3200 6950 50  0000 C CNN
	1    3200 6950
	1    0    0    -1  
$EndComp
$Comp
L +5V #PWR020
U 1 1 58B4A5AF
P 3300 6600
F 0 "#PWR020" H 3300 6450 50  0001 C CNN
F 1 "+5V" H 3300 6740 50  0000 C CNN
F 2 "" H 3300 6600 50  0000 C CNN
F 3 "" H 3300 6600 50  0000 C CNN
	1    3300 6600
	1    0    0    -1  
$EndComp
$Comp
L SWITCH_INV SW3
U 1 1 58B4B5F8
P 6000 4100
F 0 "SW3" H 5800 4250 50  0000 C CNN
F 1 "SINE/TRIANGLE" H 5850 3950 50  0000 C CNN
F 2 "Pin_Headers:Pin_Header_Straight_1x03" H 6000 4100 50  0001 C CNN
F 3 "" H 6000 4100 50  0000 C CNN
	1    6000 4100
	1    0    0    -1  
$EndComp
$Comp
L SWITCH_INV SW2
U 1 1 58B4B07C
P 2000 2200
F 0 "SW2" H 1800 2350 50  0000 C CNN
F 1 "SINE/TRIANGLE" H 1850 2050 50  0000 C CNN
F 2 "Pin_Headers:Pin_Header_Straight_1x03" H 2000 2200 50  0001 C CNN
F 3 "" H 2000 2200 50  0000 C CNN
	1    2000 2200
	1    0    0    -1  
$EndComp
$Comp
L C C14
U 1 1 58B4CAD5
P 8500 5200
F 0 "C14" H 8525 5300 50  0000 L CNN
F 1 "10µF 35V" H 8350 5100 50  0000 L CNN
F 2 "Capacitors_ThroughHole:C_Radial_D6.3_L11.2_P2.5" H 8538 5050 50  0001 C CNN
F 3 "" H 8500 5200 50  0000 C CNN
	1    8500 5200
	-1   0    0    1   
$EndComp
$Comp
L HEATSINK HS1
U 1 1 58B4E086
P 2700 6400
F 0 "HS1" H 2700 6600 50  0000 C CNN
F 1 "HEATSINK" H 2700 6350 50  0000 C CNN
F 2 "library:HEAT-SINK-TO220-24x12x30" H 2700 6400 50  0001 C CNN
F 3 "" H 2700 6400 50  0000 C CNN
	1    2700 6400
	1    0    0    -1  
$EndComp
$Comp
L CONN_01X03 P4
U 1 1 58B4E4D1
P 4450 6850
F 0 "P4" H 4450 7050 50  0000 C CNN
F 1 "POWER" V 4550 6850 50  0000 C CNN
F 2 "library:JST-B3P-VH" H 4450 6850 50  0001 C CNN
F 3 "" H 4450 6850 50  0000 C CNN
	1    4450 6850
	-1   0    0    1   
$EndComp
$Comp
L +12V #PWR021
U 1 1 58B4E6D8
P 4850 6550
F 0 "#PWR021" H 4850 6400 50  0001 C CNN
F 1 "+12V" H 4850 6690 50  0000 C CNN
F 2 "" H 4850 6550 50  0000 C CNN
F 3 "" H 4850 6550 50  0000 C CNN
	1    4850 6550
	1    0    0    -1  
$EndComp
$Comp
L GND #PWR022
U 1 1 58B4E833
P 5050 7050
F 0 "#PWR022" H 5050 6800 50  0001 C CNN
F 1 "GND" H 5050 6900 50  0000 C CNN
F 2 "" H 5050 7050 50  0000 C CNN
F 3 "" H 5050 7050 50  0000 C CNN
	1    5050 7050
	1    0    0    -1  
$EndComp
$Comp
L -12VA #PWR023
U 1 1 58B4E98C
P 4850 7050
F 0 "#PWR023" H 4850 6900 50  0001 C CNN
F 1 "-12VA" H 4850 7190 50  0000 C CNN
F 2 "" H 4850 7050 50  0000 C CNN
F 3 "" H 4850 7050 50  0000 C CNN
	1    4850 7050
	-1   0    0    1   
$EndComp
$Comp
L GND #PWR024
U 1 1 58B631A2
P 4800 6050
F 0 "#PWR024" H 4800 5800 50  0001 C CNN
F 1 "GND" H 4800 5900 50  0000 C CNN
F 2 "" H 4800 6050 50  0000 C CNN
F 3 "" H 4800 6050 50  0000 C CNN
	1    4800 6050
	1    0    0    -1  
$EndComp
$Comp
L GND #PWR025
U 1 1 58B6705B
P 7200 5050
F 0 "#PWR025" H 7200 4800 50  0001 C CNN
F 1 "GND" H 7200 4900 50  0000 C CNN
F 2 "" H 7200 5050 50  0000 C CNN
F 3 "" H 7200 5050 50  0000 C CNN
	1    7200 5050
	1    0    0    -1  
$EndComp
$Comp
L POT RV6
U 1 1 58B34DAC
P 5450 3700
F 0 "RV6" H 5450 3620 50  0000 C CNN
F 1 "SYMETRY 22K" H 5450 3500 50  0000 C CNN
F 2 "Potentiometers:Potentiometer_Bourns_3296W_3-8Zoll_Inline_ScrewUp" H 5450 3700 50  0001 C CNN
F 3 "" H 5450 3700 50  0000 C CNN
	1    5450 3700
	-1   0    0    1   
$EndComp
Wire Wire Line
	5050 1250 5050 1950
Wire Wire Line
	3200 3050 3300 3050
Wire Wire Line
	3300 2750 3300 4250
Connection ~ 3300 4250
Wire Wire Line
	3200 3950 3300 3950
Connection ~ 3300 3950
Wire Wire Line
	3200 3650 3300 3650
Connection ~ 3300 3650
Wire Wire Line
	3200 3350 3300 3350
Connection ~ 3300 3350
Wire Wire Line
	3200 2750 3300 2750
Connection ~ 3300 3050
Wire Wire Line
	2650 3800 2750 3800
Wire Wire Line
	2750 3800 2750 4250
Wire Wire Line
	2750 4250 2900 4250
Wire Wire Line
	2900 3950 2800 3950
Wire Wire Line
	2800 3950 2800 3700
Wire Wire Line
	2800 3700 2650 3700
Wire Wire Line
	2900 3650 2850 3650
Wire Wire Line
	2850 3650 2850 3600
Wire Wire Line
	2850 3600 2650 3600
Wire Wire Line
	2900 3350 2850 3350
Wire Wire Line
	2850 3350 2850 3500
Wire Wire Line
	2850 3500 2650 3500
Wire Wire Line
	2900 3050 2800 3050
Wire Wire Line
	2800 3050 2800 3400
Wire Wire Line
	2800 3400 2650 3400
Wire Wire Line
	2900 2750 2750 2750
Wire Wire Line
	2750 2750 2750 3300
Wire Wire Line
	2750 3300 2650 3300
Wire Wire Line
	2650 3200 2700 3200
Wire Wire Line
	3400 1950 3400 3950
Wire Wire Line
	3400 1550 3850 1550
Wire Wire Line
	3300 2100 3400 2100
Connection ~ 3400 2100
Wire Wire Line
	3300 2300 3400 2300
Connection ~ 3400 2300
Wire Wire Line
	3150 1950 3150 1900
Wire Wire Line
	3150 1900 2900 1900
Wire Wire Line
	3150 2450 3150 2500
Wire Wire Line
	3150 2500 2900 2500
Wire Wire Line
	4000 1100 4000 1400
Wire Wire Line
	4000 1700 4000 2150
Wire Wire Line
	2850 2100 3000 2100
Wire Wire Line
	2150 4550 2150 5450
Wire Wire Line
	2150 5450 8850 5450
Wire Wire Line
	5200 5450 5200 5350
Connection ~ 4100 5450
Wire Wire Line
	5200 4550 5200 5050
Connection ~ 5200 5450
Wire Wire Line
	4900 3800 5250 3800
Wire Wire Line
	5450 5450 5450 4550
Wire Wire Line
	4900 4100 5500 4100
Wire Wire Line
	5800 3950 4900 3950
Wire Wire Line
	6050 3500 6050 3450
Wire Wire Line
	6050 3450 6500 3450
Wire Wire Line
	6300 3450 6300 3850
Connection ~ 6300 3650
Wire Wire Line
	5900 3650 5800 3650
Wire Wire Line
	5800 3650 5800 3950
Wire Wire Line
	6300 3850 6200 3850
Wire Wire Line
	3100 4550 3000 4550
Wire Wire Line
	2500 4550 2700 4550
Wire Wire Line
	2600 4550 2600 4750
Wire Wire Line
	2600 4750 2850 4750
Wire Wire Line
	2850 4750 2850 4700
Connection ~ 2600 4550
Wire Wire Line
	2150 4550 2200 4550
Wire Wire Line
	7400 3850 7900 3850
Wire Wire Line
	7200 4450 7200 4250
Wire Wire Line
	7000 4250 7500 4250
Wire Wire Line
	7200 4750 7200 5050
Wire Wire Line
	7500 4250 7500 4450
Connection ~ 7200 4250
Wire Wire Line
	7500 4750 7500 4950
Connection ~ 7200 4950
Connection ~ 6300 3450
Wire Wire Line
	6200 3650 6300 3650
Wire Wire Line
	7200 3050 7200 3350
Wire Wire Line
	7200 3250 7450 3250
Wire Wire Line
	7450 3250 7450 3050
Connection ~ 7200 3250
Wire Wire Line
	7200 2550 7200 2750
Wire Wire Line
	7450 2550 7450 2750
Wire Wire Line
	7900 3850 7900 4050
Wire Wire Line
	8600 3850 8150 3850
Wire Wire Line
	8150 3850 8150 4200
Wire Wire Line
	8150 4200 8050 4200
Wire Wire Line
	8500 4850 8500 5050
Wire Wire Line
	8500 5450 8500 5350
Wire Wire Line
	7900 4350 7900 4450
Wire Wire Line
	8600 4050 8500 4050
Wire Wire Line
	8500 4050 8500 4550
Wire Wire Line
	8800 4400 8500 4400
Connection ~ 8500 4400
Wire Wire Line
	7500 4950 7200 4950
Wire Wire Line
	8850 5450 8850 5100
Connection ~ 8500 5450
Wire Wire Line
	8700 4950 8500 4950
Connection ~ 8500 4950
Wire Wire Line
	8850 4700 8850 4800
Wire Wire Line
	10400 4150 10400 4250
Wire Wire Line
	9200 3950 10250 3950
Wire Wire Line
	9300 3950 9300 4400
Wire Wire Line
	9300 4400 9100 4400
Connection ~ 9300 3950
Wire Wire Line
	5050 2750 5050 4400
Wire Wire Line
	5050 2250 5050 2450
Wire Wire Line
	5150 2350 5050 2350
Connection ~ 5050 2350
Wire Wire Line
	8400 2750 8600 2750
Wire Wire Line
	8500 3150 8500 2950
Wire Wire Line
	8500 2950 8600 2950
Wire Wire Line
	9300 2700 9300 2850
Wire Wire Line
	9200 2850 10250 2850
Connection ~ 9300 2850
Wire Wire Line
	9300 2300 9300 2400
Wire Wire Line
	10400 3350 10400 3050
Wire Wire Line
	8600 1750 8400 1750
Wire Wire Line
	8400 1750 8400 2750
Wire Wire Line
	8800 2150 8800 2250
Wire Wire Line
	8800 3150 8800 3350
Wire Wire Line
	8800 1050 8800 1550
Wire Wire Line
	8100 1600 8100 1650
Connection ~ 8800 1150
Wire Wire Line
	8100 1150 10100 1150
Wire Wire Line
	8100 1150 8100 1300
Wire Wire Line
	9300 1650 9300 1850
Wire Wire Line
	9200 1850 9400 1850
Wire Wire Line
	9700 1850 10200 1850
Wire Wire Line
	9300 1150 9300 1350
Connection ~ 9300 1150
Connection ~ 9300 1850
Wire Wire Line
	10100 1150 10100 1750
Wire Wire Line
	10100 1750 10200 1750
Wire Wire Line
	10100 1950 10100 2450
Wire Wire Line
	10100 1950 10200 1950
Wire Wire Line
	9850 1950 9850 1850
Connection ~ 9850 1850
Wire Wire Line
	9850 2250 9850 2350
Wire Wire Line
	9850 2350 10100 2350
Connection ~ 10100 2350
Wire Wire Line
	2100 6500 2100 6700
Wire Wire Line
	2100 6700 2300 6700
Wire Wire Line
	2700 7000 2700 7300
Wire Wire Line
	3200 6800 3200 6700
Wire Wire Line
	3100 6700 3300 6700
Connection ~ 3200 6700
Wire Wire Line
	3300 6700 3300 6600
Connection ~ 2700 7200
Wire Wire Line
	1350 2200 1500 2200
Wire Wire Line
	2500 2300 3000 2300
Wire Wire Line
	4650 6750 4850 6750
Wire Wire Line
	4850 6750 4850 6550
Wire Wire Line
	4650 6850 5050 6850
Wire Wire Line
	5050 6850 5050 7050
Wire Wire Line
	4850 7050 4850 6950
Wire Wire Line
	4850 6950 4650 6950
Wire Wire Line
	2200 7200 3200 7200
Wire Wire Line
	3200 7200 3200 7100
Wire Wire Line
	2150 4750 2350 4750
Wire Wire Line
	2350 4750 2350 4700
Wire Wire Line
	3400 3950 3700 3950
Wire Wire Line
	1350 2200 1350 2300
Wire Wire Line
	3400 1650 3400 1550
Wire Wire Line
	3500 5250 3500 5450
Wire Wire Line
	3500 4950 3500 3650
Wire Wire Line
	3500 3650 3700 3650
Wire Wire Line
	3550 1250 3550 4100
Wire Wire Line
	3550 4100 3700 4100
Connection ~ 4000 1250
Wire Wire Line
	3400 4550 3700 4550
Connection ~ 3500 5450
Connection ~ 2150 4750
Wire Wire Line
	4100 5450 4100 5550
Wire Wire Line
	5200 4550 4900 4550
Wire Wire Line
	4900 4250 5000 4250
Wire Wire Line
	5000 4250 5000 5550
Connection ~ 5000 5450
Wire Wire Line
	5000 5950 5000 5850
Connection ~ 5450 5450
Wire Wire Line
	5050 4400 4900 4400
Connection ~ 5050 1250
Wire Wire Line
	6500 3450 6500 4000
Wire Wire Line
	7000 1250 7000 3550
Wire Wire Line
	3600 3350 6700 3350
Wire Wire Line
	3600 3350 3600 3800
Wire Wire Line
	3600 3800 3700 3800
Wire Wire Line
	7000 4150 7000 5450
Connection ~ 7000 5450
Connection ~ 4450 1250
Wire Wire Line
	6800 3750 6700 3750
Wire Wire Line
	6700 3750 6700 3350
Wire Wire Line
	7000 2550 7450 2550
Connection ~ 7200 2550
Connection ~ 7000 2550
Wire Wire Line
	3550 1250 7000 1250
Connection ~ 7000 4250
Wire Wire Line
	5450 2350 8400 2350
Connection ~ 8400 2350
Wire Wire Line
	4900 3650 5200 3650
Wire Wire Line
	5200 3650 5200 3550
Wire Wire Line
	5200 3550 5700 3550
Wire Wire Line
	5450 3550 5450 3650
Connection ~ 5450 3550
Wire Wire Line
	5800 3850 5900 3850
Connection ~ 5800 3850
Wire Wire Line
	3200 4250 3700 4250
Wire Wire Line
	2700 3200 2700 4400
Wire Wire Line
	2700 4400 3700 4400
$Comp
L LM293 U3
U 1 1 58B75204
P 8900 1850
F 0 "U3" H 9050 2000 50  0000 C CNN
F 1 "LM293" H 9150 1700 50  0000 C CNN
F 2 "Housings_DIP:DIP-8_W7.62mm_LongPads" H 8900 1850 50  0001 C CNN
F 3 "" H 8900 1850 50  0000 C CNN
	1    8900 1850
	1    0    0    -1  
$EndComp
$Comp
L LM293 U3
U 2 1 58B7554E
P 8900 2850
F 0 "U3" H 9050 3000 50  0000 C CNN
F 1 "LM293" H 9150 2700 50  0000 C CNN
F 2 "Housings_DIP:DIP-8_W7.62mm_LongPads" H 8900 2850 50  0001 C CNN
F 3 "" H 8900 2850 50  0000 C CNN
	2    8900 2850
	1    0    0    -1  
$EndComp
Wire Wire Line
	8600 1950 8500 1950
Wire Wire Line
	8500 1950 8500 2200
Wire Wire Line
	8500 2200 8800 2200
Connection ~ 8800 2200
Wire Wire Line
	5250 3800 5250 3700
Wire Wire Line
	5250 3700 5300 3700
Wire Wire Line
	5600 3700 5700 3700
Wire Wire Line
	5700 3700 5700 3550
Wire Wire Line
	5450 3850 5450 4250
Wire Wire Line
	2900 1900 2900 2100
Connection ~ 2900 2100
Wire Wire Line
	2900 2500 2900 2300
Connection ~ 2900 2300
Wire Wire Line
	6800 3950 6700 3950
Wire Wire Line
	6700 3950 6700 4150
Wire Wire Line
	6700 4150 7500 4150
Wire Wire Line
	7500 4150 7500 3850
Connection ~ 7500 3850
$Comp
L CP C17
U 1 1 58BC4A03
P 3750 1800
F 0 "C17" H 3775 1900 50  0000 L CNN
F 1 "10µF 25V" H 3550 1700 50  0000 L CNN
F 2 "Capacitors_ThroughHole:C_Radial_D5_L11_P2" H 3788 1650 50  0001 C CNN
F 3 "" H 3750 1800 50  0000 C CNN
	1    3750 1800
	1    0    0    -1  
$EndComp
Wire Wire Line
	3750 1650 3750 1550
Connection ~ 3750 1550
Wire Wire Line
	3750 1950 3750 2050
Wire Wire Line
	3750 2050 4000 2050
Connection ~ 4000 2050
$Comp
L R R14
U 1 1 58BE09F9
P 2700 2100
F 0 "R14" V 2780 2100 50  0000 C CNN
F 1 "47K" V 2700 2100 50  0000 C CNN
F 2 "Resistors_ThroughHole:Resistor_Horizontal_RM10mm" V 2630 2100 50  0001 C CNN
F 3 "" H 2700 2100 50  0000 C CNN
	1    2700 2100
	0    -1   -1   0   
$EndComp
Wire Wire Line
	2500 2100 2550 2100
$Comp
L C C18
U 1 1 5D75FEA2
P 2200 6950
F 0 "C18" H 2100 7050 50  0000 L CNN
F 1 "330nF" H 2100 6850 50  0000 L CNN
F 2 "Capacitors_ThroughHole:C_Rect_L7_W2.5_P5" H 2238 6800 50  0001 C CNN
F 3 "" H 2200 6950 50  0000 C CNN
	1    2200 6950
	-1   0    0    1   
$EndComp
Wire Wire Line
	2200 6800 2200 6700
Connection ~ 2200 6700
Wire Wire Line
	2200 7100 2200 7200
Wire Wire Line
	4450 1750 4450 1650
Wire Wire Line
	4450 1350 4450 1250
$Comp
L CP C19
U 1 1 5D762248
P 4600 5700
F 0 "C19" H 4625 5800 50  0000 L CNN
F 1 "10µF 16V" H 4400 5600 50  0000 L CNN
F 2 "Capacitors_ThroughHole:C_Radial_D5_L11_P2" H 4638 5550 50  0001 C CNN
F 3 "" H 4600 5700 50  0000 C CNN
	1    4600 5700
	1    0    0    -1  
$EndComp
Wire Wire Line
	4600 5550 4600 5450
Connection ~ 4600 5450
Wire Wire Line
	4600 5850 4600 5950
Wire Wire Line
	4600 5950 5000 5950
Wire Wire Line
	4800 5950 4800 6050
Connection ~ 4800 5950
$Comp
L CP C20
U 1 1 5D762A6D
P 4800 1500
F 0 "C20" H 4825 1600 50  0000 L CNN
F 1 "10µF 16V" H 4750 1400 50  0000 L CNN
F 2 "Capacitors_ThroughHole:C_Radial_D5_L11_P2" H 4838 1350 50  0001 C CNN
F 3 "" H 4800 1500 50  0000 C CNN
	1    4800 1500
	1    0    0    -1  
$EndComp
Wire Wire Line
	4450 1750 4800 1750
Wire Wire Line
	4800 1750 4800 1650
Wire Wire Line
	4650 1750 4650 1850
Connection ~ 4650 1750
Wire Wire Line
	4800 1350 4800 1250
Connection ~ 4800 1250
$EndSCHEMATC
