EESchema Schematic File Version 2
LIBS:power
LIBS:device
LIBS:transistors
LIBS:conn
LIBS:linear
LIBS:regul
LIBS:74xx
LIBS:cmos4000
LIBS:adc-dac
LIBS:memory
LIBS:xilinx
LIBS:microcontrollers
LIBS:dsp
LIBS:microchip
LIBS:analog_switches
LIBS:motorola
LIBS:texas
LIBS:intel
LIBS:audio
LIBS:interface
LIBS:digital-audio
LIBS:philips
LIBS:display
LIBS:cypress
LIBS:siliconi
LIBS:opto
LIBS:atmel
LIBS:contrib
LIBS:valves
LIBS:my-displays
LIBS:my-microcontrollers
LIBS:counter-cache
EELAYER 25 0
EELAYER END
$Descr A4 11693 8268
encoding utf-8
Sheet 1 1
Title ""
Date ""
Rev ""
Comp ""
Comment1 ""
Comment2 ""
Comment3 ""
Comment4 ""
$EndDescr
$Comp
L arduino_nano U1
U 1 1 58BCA032
P 4200 3450
F 0 "U1" H 4500 2400 70  0000 C CNN
F 1 "arduino_nano" H 4500 2650 70  0000 C CNN
F 2 "myMicroControllers:Arduino-nano" H 4500 3400 60  0000 C CNN
F 3 "" H 4200 3450 60  0000 C CNN
	1    4200 3450
	1    0    0    -1  
$EndComp
$Comp
L CONN_01X03 P1
U 1 1 58BCA08A
P 2650 4450
F 0 "P1" H 2650 4650 50  0000 C CNN
F 1 "GENERATOR" V 2750 4450 50  0000 C CNN
F 2 "Pin_Headers:Pin_Header_Angled_1x03" H 2650 4450 50  0001 C CNN
F 3 "" H 2650 4450 50  0000 C CNN
	1    2650 4450
	-1   0    0    -1  
$EndComp
Wire Wire Line
	2850 4550 3500 4550
Wire Wire Line
	3100 4350 2850 4350
Wire Wire Line
	3100 3550 3100 4350
Wire Wire Line
	3100 4250 3500 4250
Wire Wire Line
	2850 4450 3300 4450
Wire Wire Line
	3300 4450 3300 2400
Wire Wire Line
	3300 2400 5800 2400
Wire Wire Line
	5800 2400 5800 3650
Wire Wire Line
	5800 3650 5550 3650
$Comp
L MAX7219_DISPLAY U2
U 1 1 58E8803B
P 6600 2650
F 0 "U2" H 6600 2650 60  0000 C CNN
F 1 "MAX7219_DISPLAY" H 6600 2800 60  0000 C CNN
F 2 "myModules:MAX7219_DISPLAY" H 6600 2650 60  0001 C CNN
F 3 "" H 6600 2650 60  0000 C CNN
	1    6600 2650
	1    0    0    -1  
$EndComp
Wire Wire Line
	6600 3200 6600 3100
Wire Wire Line
	5550 3350 6400 3350
Wire Wire Line
	6400 3350 6400 3100
Wire Wire Line
	6200 3100 6200 3500
$Comp
L GND #PWR01
U 1 1 58E884CC
P 6800 3200
F 0 "#PWR01" H 6800 2950 50  0001 C CNN
F 1 "GND" H 6800 3050 50  0000 C CNN
F 2 "" H 6800 3200 50  0000 C CNN
F 3 "" H 6800 3200 50  0000 C CNN
	1    6800 3200
	1    0    0    -1  
$EndComp
Wire Wire Line
	6800 3100 6800 3200
$Comp
L +5V #PWR02
U 1 1 58E884FA
P 7200 3100
F 0 "#PWR02" H 7200 2950 50  0001 C CNN
F 1 "+5V" H 7200 3240 50  0000 C CNN
F 2 "" H 7200 3100 50  0000 C CNN
F 3 "" H 7200 3100 50  0000 C CNN
	1    7200 3100
	1    0    0    -1  
$EndComp
$Comp
L +5V #PWR03
U 1 1 58E88515
P 3100 3550
F 0 "#PWR03" H 3100 3400 50  0001 C CNN
F 1 "+5V" H 3100 3690 50  0000 C CNN
F 2 "" H 3100 3550 50  0000 C CNN
F 3 "" H 3100 3550 50  0000 C CNN
	1    3100 3550
	1    0    0    -1  
$EndComp
$Comp
L GND #PWR04
U 1 1 58E88529
P 3100 4650
F 0 "#PWR04" H 3100 4400 50  0001 C CNN
F 1 "GND" H 3100 4500 50  0000 C CNN
F 2 "" H 3100 4650 50  0000 C CNN
F 3 "" H 3100 4650 50  0000 C CNN
	1    3100 4650
	1    0    0    -1  
$EndComp
Wire Wire Line
	3100 4650 3100 4550
Connection ~ 3100 4550
Connection ~ 3100 4250
Wire Wire Line
	7000 3100 7000 3200
Wire Wire Line
	7000 3200 7200 3200
Wire Wire Line
	7200 3200 7200 3100
$Comp
L C C1
U 1 1 5D77940D
P 2900 3900
F 0 "C1" H 2925 4000 50  0000 L CNN
F 1 "100nF" H 2925 3800 50  0000 L CNN
F 2 "Capacitors_ThroughHole:C_Rect_L7_W2.5_P5" H 2938 3750 50  0001 C CNN
F 3 "" H 2900 3900 50  0000 C CNN
	1    2900 3900
	1    0    0    -1  
$EndComp
Wire Wire Line
	3100 3650 2900 3650
Wire Wire Line
	2900 3650 2900 3750
Connection ~ 3100 3650
$Comp
L GND #PWR05
U 1 1 5D7794A4
P 2900 4150
F 0 "#PWR05" H 2900 3900 50  0001 C CNN
F 1 "GND" H 2900 4000 50  0000 C CNN
F 2 "" H 2900 4150 50  0000 C CNN
F 3 "" H 2900 4150 50  0000 C CNN
	1    2900 4150
	1    0    0    -1  
$EndComp
Wire Wire Line
	2900 4150 2900 4050
Wire Wire Line
	6200 3500 5550 3500
Wire Wire Line
	6600 3200 5550 3200
$EndSCHEMATC
