EESchema Schematic File Version 2
LIBS:power
LIBS:device
LIBS:transistors
LIBS:conn
LIBS:linear
LIBS:regul
LIBS:74xx
LIBS:cmos4000
LIBS:adc-dac
LIBS:memory
LIBS:xilinx
LIBS:microcontrollers
LIBS:dsp
LIBS:microchip
LIBS:analog_switches
LIBS:motorola
LIBS:texas
LIBS:intel
LIBS:audio
LIBS:interface
LIBS:digital-audio
LIBS:philips
LIBS:display
LIBS:cypress
LIBS:siliconi
LIBS:opto
LIBS:atmel
LIBS:contrib
LIBS:valves
LIBS:power-supply-LM7812-LM7912-cache
EELAYER 25 0
EELAYER END
$Descr A3 16535 11693
encoding utf-8
Sheet 1 1
Title ""
Date ""
Rev ""
Comp ""
Comment1 ""
Comment2 ""
Comment3 ""
Comment4 ""
$EndDescr
$Comp
L LM7912CT U8
U 1 1 57DEE5E2
P 9200 6550
F 0 "U8" H 9000 6350 50  0000 C CNN
F 1 "LM7912CT" H 9100 6350 50  0000 L CNN
F 2 "Power_Integrations:TO-220" H 9200 6200 50  0001 C CIN
F 3 "" H 9200 6550 50  0000 C CNN
	1    9200 6550
	1    0    0    -1  
$EndComp
$Comp
L GND #PWR01
U 1 1 57DEE8AA
P 8650 5700
F 0 "#PWR01" H 8650 5450 50  0001 C CNN
F 1 "GND" H 8650 5550 50  0000 C CNN
F 2 "" H 8650 5700 50  0000 C CNN
F 3 "" H 8650 5700 50  0000 C CNN
	1    8650 5700
	1    0    0    -1  
$EndComp
$Comp
L C C9
U 1 1 57DEF7C3
P 9700 5100
F 0 "C9" H 9725 5200 50  0000 L CNN
F 1 "100nF" H 9650 5000 50  0000 L CNN
F 2 "Capacitors_ThroughHole:C_Rect_L7_W2_P5" H 9738 4950 50  0001 C CNN
F 3 "" H 9700 5100 50  0000 C CNN
	1    9700 5100
	1    0    0    -1  
$EndComp
$Comp
L CONN_01X03 P3
U 1 1 57FA436C
P 10600 5600
F 0 "P3" H 10600 5800 50  0000 C CNN
F 1 "OUTPUT" V 10700 5600 50  0000 C CNN
F 2 "library:JST-B3P-VH" H 10600 5600 50  0001 C CNN
F 3 "" H 10600 5600 50  0000 C CNN
	1    10600 5600
	1    0    0    -1  
$EndComp
$Comp
L HEATSINK HS1
U 1 1 57FA5E0D
P 9050 6350
F 0 "HS1" H 9050 6550 50  0000 C CNN
F 1 "HEATSINK" H 9050 6300 50  0000 C CNN
F 2 "library:HEAT-SINK-TO220-24x12x30" H 9050 6350 50  0001 C CNN
F 3 "" H 9050 6350 50  0000 C CNN
	1    9050 6350
	1    0    0    -1  
$EndComp
$Comp
L VCC #PWR02
U 1 1 58172365
P 10000 4400
F 0 "#PWR02" H 10000 4250 50  0001 C CNN
F 1 "VCC" H 10000 4550 50  0000 C CNN
F 2 "" H 10000 4400 50  0000 C CNN
F 3 "" H 10000 4400 50  0000 C CNN
	1    10000 4400
	1    0    0    -1  
$EndComp
$Comp
L VSS #PWR03
U 1 1 581723F0
P 10000 6800
F 0 "#PWR03" H 10000 6650 50  0001 C CNN
F 1 "VSS" H 10000 6950 50  0000 C CNN
F 2 "" H 10000 6800 50  0000 C CNN
F 3 "" H 10000 6800 50  0000 C CNN
	1    10000 6800
	-1   0    0    1   
$EndComp
$Comp
L LED D2
U 1 1 58172B39
P 7800 6300
F 0 "D2" H 7800 6400 50  0000 C CNN
F 1 "LED" H 7800 6200 50  0000 C CNN
F 2 "Pin_Headers:Pin_Header_Straight_1x02" H 7800 6300 50  0001 C CNN
F 3 "" H 7800 6300 50  0000 C CNN
	1    7800 6300
	0    -1   -1   0   
$EndComp
$Comp
L R R1
U 1 1 58172D3A
P 7800 5850
F 0 "R1" V 7880 5850 50  0000 C CNN
F 1 "3.3K" V 7800 5850 50  0000 C CNN
F 2 "Resistors_ThroughHole:Resistor_Horizontal_RM10mm" V 7730 5850 50  0001 C CNN
F 3 "" H 7800 5850 50  0000 C CNN
	1    7800 5850
	1    0    0    -1  
$EndComp
$Comp
L C C2
U 1 1 581D880C
P 10000 6100
F 0 "C2" H 10025 6200 50  0000 L CNN
F 1 "100pF" H 9950 6000 50  0000 L CNN
F 2 "Capacitors_ThroughHole:C_Rect_L7_W2_P5" H 10038 5950 50  0001 C CNN
F 3 "" H 10000 6100 50  0000 C CNN
	1    10000 6100
	1    0    0    -1  
$EndComp
$Comp
L C C1
U 1 1 581D886E
P 10000 5100
F 0 "C1" H 10025 5200 50  0000 L CNN
F 1 "100pF" H 9950 5000 50  0000 L CNN
F 2 "Capacitors_ThroughHole:C_Rect_L7_W2_P5" H 10038 4950 50  0001 C CNN
F 3 "" H 10000 5100 50  0000 C CNN
	1    10000 5100
	1    0    0    -1  
$EndComp
$Comp
L LM7812CT U7
U 1 1 57DEF639
P 9200 4650
F 0 "U7" H 9000 4850 50  0000 C CNN
F 1 "LM7812CT" H 9100 4850 50  0000 L CNN
F 2 "Power_Integrations:TO-220" H 9250 5000 50  0001 C CIN
F 3 "" H 9200 4650 50  0000 C CNN
	1    9200 4650
	1    0    0    -1  
$EndComp
$Comp
L TRANSFO2 T1
U 1 1 58B71D60
P 6200 5600
F 0 "T1" H 6200 6100 50  0000 C CNN
F 1 "2x12V 10VA" H 6200 5100 50  0000 C CNN
F 2 "library:Transfo_10VA" H 6200 5600 50  0001 C CNN
F 3 "" H 6200 5600 50  0000 C CNN
	1    6200 5600
	1    0    0    1   
$EndComp
$Comp
L R R2
U 1 1 58B71D67
P 5400 5300
F 0 "R2" V 5480 5300 50  0000 C CNN
F 1 "47" V 5400 5300 50  0000 C CNN
F 2 "Resistors_ThroughHole:Resistor_Horizontal_RM20mm" V 5330 5300 50  0001 C CNN
F 3 "" H 5400 5300 50  0000 C CNN
	1    5400 5300
	0    1    1    0   
$EndComp
$Comp
L VR VR1
U 1 1 58B71D6E
P 5650 5600
F 0 "VR1" V 5710 5554 50  0000 C TNN
F 1 "SIOV-S10K275" V 5550 5600 50  0000 C CNN
F 2 "Varistors:RV_Disc_D12_W3.9_P7.5" H 5650 5600 50  0001 C CNN
F 3 "" H 5650 5600 50  0000 C CNN
	1    5650 5600
	1    0    0    -1  
$EndComp
$Comp
L Diode_Bridge D1
U 1 1 58B71D7C
P 7300 5100
F 0 "D1" H 7050 5400 50  0000 C CNN
F 1 "KBP2005G" H 7500 5450 50  0000 C CNN
F 2 "library:bridge_3.56" H 7300 5100 50  0001 C CNN
F 3 "" H 7300 5100 50  0000 C CNN
	1    7300 5100
	1    0    0    -1  
$EndComp
$Comp
L CP C3
U 1 1 58B71D91
P 8100 5050
F 0 "C3" H 8125 5150 50  0000 L CNN
F 1 "4700µF 25V" H 7900 4900 50  0000 L CNN
F 2 "Capacitors_ThroughHole:C_Radial_D16_L30_P7.5" H 8138 4900 50  0001 C CNN
F 3 "" H 8100 5050 50  0000 C CNN
	1    8100 5050
	1    0    0    -1  
$EndComp
$Comp
L CP C4
U 1 1 58B71D98
P 8100 6100
F 0 "C4" H 8125 6200 50  0000 L CNN
F 1 "1000µF 25V" H 8000 5900 50  0000 L CNN
F 2 "Capacitors_ThroughHole:C_Radial_D10_L20_P5" H 8138 5950 50  0001 C CNN
F 3 "" H 8100 6100 50  0000 C CNN
	1    8100 6100
	1    0    0    -1  
$EndComp
$Comp
L C C7
U 1 1 58B71D9F
P 8400 5050
F 0 "C7" H 8425 5150 50  0000 L CNN
F 1 "470nF" H 8425 4950 50  0000 L CNN
F 2 "Capacitors_ThroughHole:C_Rect_L7_W3.5_P5" H 8438 4900 50  0001 C CNN
F 3 "" H 8400 5050 50  0000 C CNN
	1    8400 5050
	1    0    0    -1  
$EndComp
$Comp
L C C8
U 1 1 58B71DA6
P 8400 6100
F 0 "C8" H 8425 6200 50  0000 L CNN
F 1 "470nF" H 8425 6000 50  0000 L CNN
F 2 "Capacitors_ThroughHole:C_Rect_L7_W3.5_P5" H 8438 5950 50  0001 C CNN
F 3 "" H 8400 6100 50  0000 C CNN
	1    8400 6100
	1    0    0    -1  
$EndComp
$Comp
L CONN_01X03 P1
U 1 1 58B71E0E
P 4900 5600
F 0 "P1" H 4900 5800 50  0000 C CNN
F 1 "AC 230V" V 5000 5600 50  0000 C CNN
F 2 "library:JST-B3P-VH" H 4900 5600 50  0001 C CNN
F 3 "" H 4900 5600 50  0000 C CNN
	1    4900 5600
	-1   0    0    1   
$EndComp
Wire Wire Line
	7800 4600 8800 4600
Connection ~ 9200 5600
Wire Wire Line
	9700 4600 9700 4950
Connection ~ 9700 4600
Wire Wire Line
	9700 5250 9700 5950
Connection ~ 9700 5600
Wire Wire Line
	9700 6250 9700 6600
Connection ~ 9700 6600
Wire Wire Line
	10300 4600 10300 5500
Wire Wire Line
	10300 5500 10400 5500
Wire Wire Line
	10300 5700 10400 5700
Wire Wire Line
	10300 6600 10300 5700
Wire Wire Line
	7800 6000 7800 6100
Wire Wire Line
	7800 6500 7800 6600
Wire Wire Line
	10000 4400 10000 4950
Connection ~ 10000 4600
Wire Wire Line
	10000 5250 10000 5950
Connection ~ 10000 5600
Wire Wire Line
	10000 6250 10000 6800
Connection ~ 10000 6600
Wire Notes Line
	8950 6400 9000 6400
Wire Wire Line
	9200 4900 9200 6300
Connection ~ 8650 5600
Wire Wire Line
	9600 6600 10300 6600
Wire Wire Line
	8650 5600 8650 5700
Connection ~ 8400 6600
Wire Wire Line
	8400 6600 8400 6250
Connection ~ 8400 5600
Wire Wire Line
	8400 5200 8400 5950
Connection ~ 8400 4600
Wire Wire Line
	8400 4600 8400 4900
Connection ~ 8100 6600
Wire Wire Line
	8100 6600 8100 6250
Connection ~ 8100 5600
Wire Wire Line
	8100 5200 8100 5950
Connection ~ 8100 4600
Wire Wire Line
	8100 4900 8100 4600
Wire Wire Line
	6800 5100 6900 5100
Wire Wire Line
	6800 6600 6800 5100
Wire Wire Line
	7300 6000 7300 5500
Wire Wire Line
	6750 4600 7300 4600
Wire Wire Line
	6600 5200 6750 5200
Connection ~ 5650 5300
Wire Wire Line
	5650 5350 5650 5300
Connection ~ 5650 5900
Wire Wire Line
	5650 5850 5650 5900
Wire Wire Line
	5200 5900 5200 5700
Wire Wire Line
	5200 5900 5800 5900
Wire Wire Line
	5800 5900 5800 5800
Wire Wire Line
	5800 5300 5800 5400
Wire Wire Line
	5550 5300 5800 5300
Wire Wire Line
	5200 5300 5250 5300
Wire Wire Line
	5200 5500 5200 5300
Wire Wire Line
	5200 5700 5100 5700
Wire Wire Line
	5200 5500 5100 5500
Connection ~ 6650 5600
Wire Wire Line
	7700 5100 7800 5100
Wire Wire Line
	7300 4600 7300 4700
Wire Wire Line
	6800 6600 8800 6600
Connection ~ 7800 6600
Wire Wire Line
	9600 4600 10300 4600
Wire Wire Line
	6650 5600 10400 5600
Wire Wire Line
	6750 5200 6750 4600
Wire Wire Line
	6600 6000 7300 6000
Wire Wire Line
	7800 5100 7800 4600
Wire Wire Line
	7800 5600 7800 5700
Connection ~ 7800 5600
$Comp
L HEATSINK HS2
U 1 1 58B8619A
P 9000 4850
F 0 "HS2" H 9000 5050 50  0000 C CNN
F 1 "HEATSINK" H 9000 4800 50  0000 C CNN
F 2 "library:HEAT-SINK-TO220-20x10x19" H 9000 4850 50  0001 C CNN
F 3 "" H 9000 4850 50  0000 C CNN
	1    9000 4850
	-1   0    0    1   
$EndComp
$Comp
L CP C10
U 1 1 58BABB6C
P 9700 6100
F 0 "C10" H 9725 6200 50  0000 L CNN
F 1 "1µF 25V" H 9600 5900 50  0000 L CNN
F 2 "Capacitors_ThroughHole:C_Radial_D5_L11_P2" H 9738 5950 50  0001 C CNN
F 3 "" H 9700 6100 50  0000 C CNN
	1    9700 6100
	1    0    0    -1  
$EndComp
Wire Wire Line
	6600 5500 6650 5500
Wire Wire Line
	6650 5500 6650 5700
Wire Wire Line
	6650 5700 6600 5700
$EndSCHEMATC
